; generated by Slic3r 1.2.9 on 2016-02-14 at 21:20:45

; external perimeters extrusion width = 0.40mm
; perimeters extrusion width = 0.35mm
; infill extrusion width = 0.40mm
; solid infill extrusion width = 0.40mm
; top infill extrusion width = 0.35mm

M107
M190 S50 ; set bed temperature
M104 S200 ; set temperature


M109 S200 ; wait for temperature to be reached
G21 ; set units to millimeters
G90 ; use absolute coordinates
M82 ; use absolute distances for extrusion
G92 E0
G1 Z0.230 F10200.000
G1 X97.298 Y106.246 F10200.000
M204 S5000
G1 X98.019 Y105.647 E0.03142 F1800.000
G1 X98.480 Y105.294 E0.05090
G1 X98.963 Y104.949 E0.07079
G1 X99.471 Y104.624 E0.09104
G1 X100.522 Y104.049 E0.13119
G1 X101.414 Y103.628 E0.16425
G1 X102.324 Y103.288 E0.19682
G1 X103.140 Y103.028 E0.22553