; generated by Slic3r 1.2.9 on 2016-02-14 at 21:20:45

; external perimeters extrusion width = 0.40mm
; perimeters extrusion width = 0.35mm
; infill extrusion width = 0.40mm
; solid infill extrusion width = 0.40mm
; top infill extrusion width = 0.35mm

M107
M190 S50 ; set bed temperature
M104 S200 ; set temperature


M109 S200 ; wait for temperature to be reached
G21 ; set units to millimeters
G90 ; use absolute coordinates
M82 ; use absolute distances for extrusion
G92 E0
G1 Z0.230 F10200.000
G1 X97.298 Y106.246 F10200.000
M204 S5000
G1 X98.027 Y105.646 E0.03142 F1800.000
G1 X98.493 Y105.293 E0.05090
G1 X98.981 Y104.948 E0.07079
G1 X99.493 Y104.623 E0.09104
G1 X100.552 Y104.048 E0.13119
G1 X101.450 Y103.627 E0.16425
G1 X102.365 Y103.287 E0.19682
G1 X103.185 Y103.027 E0.22553
